<BuildResults>
  <myReasonForBuild>
    <myReason>Code has changed</myReason>
  </myReasonForBuild>
  <myBuildState>
    <myState>Failed</myState>
  </myBuildState>
  <myBuildErrors>
    <string>svn: warning: &apos;svn\aa.txt&apos; is already under version control</string>
  </myBuildErrors>
  <myBuildNumber>18</myBuildNumber>
  <myBuildDate>1248910804093</myBuildDate>
  <myBuildDuration>2250</myBuildDuration>
  <mySuccessfulTestResults/>
</BuildResults>